{
	"src"         : {
		"copy"           : [
			"**/*",
			".ebextensions/*.config",
			"!dist/**/*",
			"!dist",
			"!node_modules/**/*",
			"!node_modules",
			"!babelwrapConfig.json",
			"!babelwrapConfig.json.bak",
			"!tests",
			"!tests/**/*"
		],
		"nowatch"        : [
			"!node_modules/**/*.*"
		],
		"babelFy"        : [
			"**/*.js",
			"!**/public/js/ui-bootstrap.js",
			"!**/public/js/ui-bootstrap-tpls.js",
			"!**/public/js/underscore.js",
			"!**/public/js/angular.js",
			"!**/public/js/nv.d3.js",
			"!public/js/templates/**/*.js",
			"!public/js/bower_components/**/*.js",
			"!public/javascripts/**/*.js",
			"!public/bootstrap/**/*.js",
			"!public/css/**/*.js",
			"!public/fonts/**/*.js",
			"!public/images/**/*.js",
			"!public/js/compiledtemplates/**/*.js",
			"!public/js/plugins/**/*.js",
			"!public/js/**/*.min.js",
			"!public/js/underscore-min.js",
			"!public/js/minified.js",
			"!dist/**/*.js",
			"!node_modules/**/*.js",
			"!tests",
			"!tests/**/*"
		],
		"babelFyIncludes": [],
		"copyIncludes"   : []
	},
	"dest"        : "dist",
	"base"        : "",
	"babeloptions": {
		"blacklist" : [
			"bluebirdCoroutines",
			"asyncToGenerator",
			"regenerator",
			"runtime"
		],
		"sourceMaps": true

	},
	"debug"       : false
}